FREQ_DIVIDER_EVEN/res.vcd
$date
	Thu Oct 17 12:12:58 2024
$end
$version
	Icarus Verilog
$end
$timescale
	1s
$end
$scope module dff $end
$var wire 1 ! clk $end
$var wire 1 " rst $end
$var reg 1 # q $end
$upscope $end
$scope module tb_freq_div $end
$var wire 1 $ div8 $end
$var wire 1 % div4 $end
$var wire 1 & div32 $end
$var wire 1 ' div2 $end
$var wire 1 ( div16 $end
$var reg 1 ) clk $end
$var reg 1 * rst $end
$scope module dut $end
$var wire 1 ) clk $end
$var wire 1 * rst $end
$var reg 5 + count [4:0] $end
$var reg 1 ( div16 $end
$var reg 1 ' div2 $end
$var reg 1 & div32 $end
$var reg 1 % div4 $end
$var reg 1 $ div8 $end
$upscope $end
$upscope $end
$enddefinitions $end
$comment Show the parameter values. $end
$dumpall
$end
#15
$dumpvars
b1 +
0*
1)
0(
0'
0&
0%
0$
x#
z"
z!
$end
#20
0)
#25
b10 +
1'
1)
#30
0)
#35
b11 +
1%
0'
1)
#40
0)
#45
b100 +
1'
1)
#50
0)
#55
b101 +
1$
0%
0'
1)
#60
0)
#65
b110 +
1'
1)
#70
0)
#75
b111 +
1%
0'
1)
#80
0)
#85
b1000 +
1'
1)
#90
0)
#95
b1001 +
1(
0$
0%
0'
1)
#100
0)
#105
b1010 +
1'
1)
#110
0)
#115
b1011 +
1%
0'
1)
#120
0)
#125
b1100 +
1'
1)
#130
0)
#135
b1101 +
1$
0%
0'
1)
#140
0)
#145
b1110 +
1'
1)
#150
0)
#155
b1111 +
1%
0'
1)
#160
0)
#165
b10000 +
1'
1)
#170
0)
#175
b10001 +
1&
0(
0$
0%
0'
1)
#180
0)
#185
b10010 +
1'
1)
#190
0)
#195
b10011 +
1%
0'
1)
#200
0)
#205
b10100 +
1'
1)
#210
0)
#215
b10101 +
1$
0%
0'
1)
#220
0)
#225
b10110 +
1'
1)
#230
0)
#235
b10111 +
1%
0'
1)
#240
0)
#245
b11000 +
1'
1)
#250
0)
#255
b11001 +
1(
0$
0%
0'
1)
#260
0)
#265
b11010 +
1'
1)
#270
0)
#275
b11011 +
1%
0'
1)
#280
0)
#285
b11100 +
1'
1)
#290
0)
#295
b11101 +
1$
0%
0'
1)
#300
0)
#305
b11110 +
1'
1)
#310
0)
#315
b11111 +
1%
0'
1)
#320
0)
#325
b0 +
1'
1)
#330
0)
#335
b1 +
0&
0(
0$
0%
0'
1)
#340
0)
#345
b10 +
1'
1)
#350
0)
#355
b11 +
1%
0'
1)
#360
0)
#365
b100 +
1'
1)
#370
0)
#375
b101 +
1$
0%
0'
1)
#380
0)
#385
b110 +
1'
1)
#390
0)
#395
b111 +
1%
0'
1)
#400
0)
#405
b1000 +
1'
1)
#410
0)
#415
b1001 +
1(
0$
0%
0'
1)
#420
0)
#425
b1010 +
1'
1)
#430
0)
#435
b1011 +
1%
0'
1)
#440
0)
#445
b1100 +
1'
1)
#450
0)
#455
b1101 +
1$
0%
0'
1)
#460
0)
#465
b1110 +
1'
1)
#470
0)
#475
b1111 +
1%
0'
1)
#480
0)
#485
b10000 +
1'
1)
#490
0)
#495
b10001 +
1&
0(
0$
0%
0'
1)
#500
0)
#505
b10010 +
1'
1)
#510
0)
#515
b10011 +
1%
0'
1)
