booth_multiplier/boothmultiplier_tb.vcd
$date
	Mon Sep 23 20:13:24 2024
$end
$version
	Icarus Verilog
$end
$timescale
	1s
$end
$scope module test $end
$var wire 32 ! result [31:0] $end
$var reg 1 " clk $end
$var reg 16 # data_in [15:0] $end
$var reg 1 $ start $end
$scope module dut $end
$var wire 1 " clk $end
$var wire 16 % data_in [15:0] $end
$var wire 1 $ start $end
$var wire 1 & sftQ $end
$var wire 1 ' sftA $end
$var wire 32 ( result [31:0] $end
$var wire 1 ) qm1 $end
$var wire 1 * ldcount $end
$var wire 1 + ldQ $end
$var wire 1 , ldM $end
$var wire 1 - ldA $end
$var wire 1 . eqz $end
$var wire 1 / done $end
$var wire 1 0 decr $end
$var wire 5 1 countdata [4:0] $end
$var wire 1 2 clrQ $end
$var wire 1 3 clrFF $end
$var wire 1 4 clrA $end
$var wire 1 5 addsub $end
$var wire 16 6 Z [15:0] $end
$var wire 16 7 Q [15:0] $end
$var wire 16 8 M [15:0] $end
$var wire 16 9 A [15:0] $end
$scope module Acc_A $end
$var wire 1 " clk $end
$var wire 1 : s_in $end
$var wire 1 ' sft $end
$var wire 1 4 rst $end
$var wire 16 ; ld_data [15:0] $end
$var wire 1 - ld $end
$var reg 16 < data_out [15:0] $end
$upscope $end
$scope module Adsub $end
$var wire 16 = in1 [15:0] $end
$var wire 16 > in2 [15:0] $end
$var wire 1 5 addsub $end
$var reg 16 ? out [15:0] $end
$upscope $end
$scope module Mlcd_M $end
$var wire 1 " clk $end
$var wire 16 @ data_in [15:0] $end
$var wire 1 , ld $end
$var reg 16 A data_out [15:0] $end
$upscope $end
$scope module Mlpr_Q $end
$var wire 1 " clk $end
$var wire 16 B ld_data [15:0] $end
$var wire 1 C s_in $end
$var wire 1 & sft $end
$var wire 1 2 rst $end
$var wire 1 + ld $end
$var reg 16 D data_out [15:0] $end
$upscope $end
$scope module counter $end
$var wire 1 " clk $end
$var wire 1 * ldcount $end
$var wire 1 0 decr $end
$var reg 5 E countdata [4:0] $end
$upscope $end
$scope module d_ff $end
$var wire 1 " clk $end
$var wire 1 F data_in $end
$var wire 1 3 rst $end
$var reg 1 ) data_out $end
$upscope $end
$scope module fsm $end
$var wire 1 " clk $end
$var wire 1 . eqz $end
$var wire 1 G q0 $end
$var wire 1 ) qm1 $end
$var wire 1 $ start $end
$var wire 1 & sftQ $end
$var wire 1 ' sftA $end
$var wire 1 * ldcount $end
$var wire 1 + ldQ $end
$var wire 1 , ldM $end
$var wire 1 - ldA $end
$var wire 1 / done $end
$var wire 1 0 decr $end
$var wire 1 2 clrQ $end
$var wire 1 3 clrFF $end
$var wire 1 4 clrA $end
$var wire 1 5 addsub $end
$var parameter 3 H S0 $end
$var parameter 3 I S1 $end
$var parameter 3 J S2 $end
$var parameter 3 K S3 $end
$var parameter 3 L S4 $end
$var parameter 3 M S5 $end
$var parameter 3 N S6 $end
$var reg 3 O state [2:0] $end
$upscope $end
$upscope $end
$upscope $end
$enddefinitions $end
$comment Show the parameter values. $end
$dumpall
b110 N
b101 M
b100 L
b11 K
b10 J
b1 I
b0 H
$end
#0
$dumpvars
bx O
xG
xF
bx E
bx D
xC
bx B
bx A
bx @
bx ?
bx >
bx =
bx <
bx ;
x:
bx 9
bx 8
bx 7
bx 6
x5
x4
x3
x2
bx 1
x0
x/
x.
x-
x,
x+
x*
x)
bx (
x'
x&
bx %
x$
bx #
0"
bx !
$end
#5
0-
14
0'
0+
12
0&
0,
13
05
00
0*
0/
b0 O
1"
#10
1$
0"
#15
0G
0F
0C
0:
b0 !
b0 (
0)
b0 7
b0 D
b0 9
b0 <
b0 =
04
02
1,
03
1*
b1 O
1"
#20
b1010 #
b1010 %
b1010 @
b1010 B
0"
#25
b1111111111110110 6
b1111111111110110 ;
b1111111111110110 ?
b1010 8
b1010 >
b1010 A
0.
b10000 1
b10000 E
1+
0,
0*
b10 O
1"
#30
b1101 #
b1101 %
b1101 @
b1101 B
0"
#35
1G
1F
b1101 !
b1101 (
b1101 7
b1101 D
1"
#36
1-
0+
b100 O
#40
0"
#45
b1111111111101100 6
b1111111111101100 ;
b1111111111101100 ?
1:
b11111111111101100000000000001101 !
b11111111111101100000000000001101 (
b1111111111110110 9
b1111111111110110 <
b1111111111110110 =
1)
0-
1'
1&
10
b101 O
1"
#50
0"
#55
0G
0F
b1111111111110001 6
b1111111111110001 ;
b1111111111110001 ?
1C
b11111111111110110000000000000110 !
b11111111111110110000000000000110 (
b1111 1
b1111 E
b110 7
b110 D
b1111111111111011 9
b1111111111111011 <
b1111111111111011 =
1"
#56
1-
b101 6
b101 ;
b101 ?
0'
0&
15
00
b11 O
#60
0"
#65
0:
b1010000000000000110 !
b1010000000000000110 (
b101 9
b101 <
b101 =
0)
0-
b1111111111111011 6
b1111111111111011 ;
b1111111111111011 ?
1'
1&
05
10
b101 O
1"
#70
0"
#75
1G
1F
b1111111111111000 6
b1111111111111000 ;
b1111111111111000 ?
0C
b101000000000000011 !
b101000000000000011 (
b1110 1
b1110 E
b1000000000000011 7
b1000000000000011 D
b10 9
b10 <
b10 =
1"
#76
1-
0'
0&
00
b100 O
#80
0"
#85
b1111111111101110 6
b1111111111101110 ;
b1111111111101110 ?
1:
b11111111111110001000000000000011 !
b11111111111110001000000000000011 (
b1111111111111000 9
b1111111111111000 <
b1111111111111000 =
1)
0-
1'
1&
10
b101 O
1"
#90
0"
#95
b1111111111110010 6
b1111111111110010 ;
b1111111111110010 ?
b11111111111111000100000000000001 !
b11111111111111000100000000000001 (
b1101 1
b1101 E
b100000000000001 7
b100000000000001 D
b1111111111111100 9
b1111111111111100 <
b1111111111111100 =
1"
#100
0"
#105
b1111111111110100 6
b1111111111110100 ;
b1111111111110100 ?
0G
0F
b11111111111111100010000000000000 !
b11111111111111100010000000000000 (
b1111111111111110 9
b1111111111111110 <
b1111111111111110 =
b10000000000000 7
b10000000000000 D
b1100 1
b1100 E
1"
#106
1-
b1000 6
b1000 ;
b1000 ?
0'
0&
15
00
b11 O
#110
0"
#115
0:
b10000010000000000000 !
b10000010000000000000 (
0)
b1000 9
b1000 <
b1000 =
0-
b1111111111111110 6
b1111111111111110 ;
b1111111111111110 ?
1'
1&
05
10
b101 O
1"
#120
0"
#125
b1111111111111010 6
b1111111111111010 ;
b1111111111111010 ?
b1000001000000000000 !
b1000001000000000000 (
b100 9
b100 <
b100 =
b1000000000000 7
b1000000000000 D
b1011 1
b1011 E
1"
#130
0"
#135
b1111111111111000 6
b1111111111111000 ;
b1111111111111000 ?
b100000100000000000 !
b100000100000000000 (
b1010 1
b1010 E
b100000000000 7
b100000000000 D
b10 9
b10 <
b10 =
1"
#140
0"
#145
b1111111111110111 6
b1111111111110111 ;
b1111111111110111 ?
1C
b10000010000000000 !
b10000010000000000 (
b1 9
b1 <
b1 =
b10000000000 7
b10000000000 D
b1001 1
b1001 E
1"
#150
0"
#155
b1111111111110110 6
b1111111111110110 ;
b1111111111110110 ?
0C
b1000001000000000 !
b1000001000000000 (
b1000 1
b1000 E
b1000001000000000 7
b1000001000000000 D
b0 9
b0 <
b0 =
1"
#160
0"
#165
b100000100000000 !
b100000100000000 (
b100000100000000 7
b100000100000000 D
b111 1
b111 E
1"
#170
0"
#175
b10000010000000 !
b10000010000000 (
b110 1
b110 E
b10000010000000 7
b10000010000000 D
1"
#180
0"
#185
b1000001000000 !
b1000001000000 (
b1000001000000 7
b1000001000000 D
b101 1
b101 E
1"
#190
0"
#195
b100000100000 !
b100000100000 (
b100 1
b100 E
b100000100000 7
b100000100000 D
1"
#200
0"
#205
b10000010000 !
b10000010000 (
b10000010000 7
b10000010000 D
b11 1
b11 E
1"
#210
0"
#215
b1000001000 !
b1000001000 (
b10 1
b10 E
b1000001000 7
b1000001000 D
1"
#220
0"
#225
b100000100 !
b100000100 (
b100000100 7
b100000100 D
b1 1
b1 E
1"
#230
0"
#235
b10000010 !
b10000010 (
1.
b0 1
b0 E
b10000010 7
b10000010 D
1"
#236
0'
0&
00
1/
b110 O
