ASYNCHRONUS_FIFO_WITH_STA/res.vcd
$date
	Fri Nov  8 22:19:57 2024
$end
$version
	Icarus Verilog
$end
$timescale
	1ps
$end
$scope module tb $end
$var wire 1 ! full $end
$var wire 1 " empty $end
$var wire 8 # data_out [7:0] $end
$var reg 8 $ data_in [7:0] $end
$var reg 1 % r_en $end
$var reg 1 & rclk $end
$var reg 1 ' rrst_n $end
$var reg 1 ( w_en $end
$var reg 1 ) wclk $end
$var reg 1 * wrst_n $end
$var integer 32 + i [31:0] $end
$var integer 32 , seed [31:0] $end
$scope module dut $end
$var wire 8 - data_in [7:0] $end
$var wire 1 % r_en $end
$var wire 1 & rclk $end
$var wire 1 ' rrst_n $end
$var wire 1 ( w_en $end
$var wire 1 ) wclk $end
$var wire 1 * wrst_n $end
$var wire 5 . wptr [4:0] $end
$var wire 4 / waddr [3:0] $end
$var wire 5 0 rptr [4:0] $end
$var wire 4 1 raddr [3:0] $end
$var wire 5 2 g_wptr [4:0] $end
$var wire 5 3 g_rptr [4:0] $end
$var wire 1 ! full $end
$var wire 1 " empty $end
$var wire 8 4 data_out [7:0] $end
$scope module fifomemory $end
$var wire 8 5 data_in [7:0] $end
$var wire 8 6 data_out [7:0] $end
$var wire 1 ) wclk $end
$var wire 1 ( wclk_en $end
$var wire 4 7 waddr [3:0] $end
$var wire 4 8 raddr [3:0] $end
$var wire 1 ! full $end
$upscope $end
$scope module rptrhandler $end
$var wire 1 % r_en $end
$var wire 1 & rclk $end
$var wire 1 ' rrst_n $end
$var wire 1 9 rempty $end
$var wire 5 : rbin_next [4:0] $end
$var wire 4 ; raddr [3:0] $end
$var wire 5 < g_wptr [4:0] $end
$var wire 5 = g_rptr_next [4:0] $end
$var reg 1 " empty $end
$var reg 5 > rbin [4:0] $end
$var reg 5 ? rptr [4:0] $end
$scope module gray_converter2 $end
$var wire 5 @ b [4:0] $end
$var wire 5 A g [4:0] $end
$upscope $end
$upscope $end
$scope module syncA $end
$var wire 1 ) clk $end
$var wire 5 B in [4:0] $end
$var wire 1 * rst_n $end
$var reg 5 C qb1 [4:0] $end
$var reg 5 D qb2 [4:0] $end
$upscope $end
$scope module syncB $end
$var wire 1 & clk $end
$var wire 1 ' rst_n $end
$var wire 5 E in [4:0] $end
$var reg 5 F qb1 [4:0] $end
$var reg 5 G qb2 [4:0] $end
$upscope $end
$scope module wrpthandler $end
$var wire 5 H g_rptr [4:0] $end
$var wire 1 ( w_en $end
$var wire 1 ) wclk $end
$var wire 1 * wrst_n $end
$var wire 1 I wfull $end
$var wire 5 J wbin_next [4:0] $end
$var wire 4 K waddr [3:0] $end
$var wire 5 L g_wptr_next [4:0] $end
$var reg 1 ! full $end
$var reg 5 M wbin [4:0] $end
$var reg 5 N wptr [4:0] $end
$scope module gray_converter1 $end
$var wire 5 O b [4:0] $end
$var wire 5 P g [4:0] $end
$upscope $end
$upscope $end
$upscope $end
$upscope $end
$enddefinitions $end
$comment Show the parameter values. $end
$dumpall
$end
#0
$dumpvars
bx P
bx O
bx N
bx M
bx L
bx K
bx J
xI
bx H
bx G
bx F
bx E
bx D
bx C
bx B
bx A
bx @
bx ?
bx >
bx =
bx <
bx ;
bx :
x9
bx 8
bx 7
bx 6
b0 5
bx 4
bx 3
bx 2
bx 1
bx 0
bx /
bx .
b0 -
b1 ,
b0 +
1*
0)
0(
1'
0&
0%
b0 $
bx #
x"
x!
$end
#5000
1)
#10000
0)
1&
#15000
1)
#20000
0)
0&
#25000
1)
#30000
0)
1&
#35000
1)
#40000
b0 =
b0 A
b0 L
b0 P
b0 1
b0 8
b0 ;
b0 /
b0 7
b0 K
b0 0
b0 ?
b0 B
b0 :
b0 @
b0 >
1"
b0 J
b0 O
b0 M
b0 .
b0 E
b0 N
0!
0)
0&
0'
0*
#45000
0I
b0 3
b0 D
b0 H
b0 C
1)
#50000
19
b0 2
b0 <
b0 G
b0 F
0)
1&
#55000
1)
#60000
0)
0&
#65000
1)
#70000
0)
1&
#75000
1)
#80000
b1 L
b1 P
b1 J
b1 O
0)
0&
b10000110111001110 ,
1(
1'
1*
#85000
b11 L
b11 P
b1 /
b1 7
b1 K
b0 #
b0 4
b0 6
b10 J
b10 O
b1 M
b1 .
b1 E
b1 N
1)
#90000
b1 F
0)
1&
b111000 $
b111000 -
b111000 5
b11100010110011000001111110111 ,
b1 +
#95000
b10 L
b10 P
b10 /
b10 7
b10 K
b11 J
b11 O
b10 M
b11 .
b11 E
b11 N
1)
#100000
0)
0&
b10000110 $
b10000110 -
b10000110 5
b11000011010110010011011111001100 ,
b10 +
#105000
b110 L
b110 P
b11 /
b11 7
b11 K
b100 J
b100 O
b11 M
b10 .
b10 E
b10 N
1)
#110000
09
b1 2
b1 <
b1 G
b10 F
0)
1&
b1011100 $
b1011100 -
b1011100 5
b101110000100110000101001011101 ,
b11 +
#115000
b111 L
b111 P
b100 /
b100 7
b100 K
b101 J
b101 O
b100 M
b110 .
b110 E
b110 N
1)
#120000
0)
0&
b11001110 $
b11001110 -
b11001110 5
b11100111001000110000010101111010 ,
b100 +
#125000
b101 L
b101 P
b101 /
b101 7
b101 K
b110 J
b110 O
b101 M
b111 .
b111 E
b111 N
1)
#130000
0"
b10 2
b10 <
b10 G
b111 F
0)
1&
b11000111 $
b11000111 -
b11000111 5
b11100011110011001001010010110011 ,
b101 +
#135000
b100 L
b100 P
b110 /
b110 7
b110 K
b111 J
b111 O
b110 M
b101 .
b101 E
b101 N
1)
#140000
0)
0&
b11000110 $
b11000110 -
b11000110 5
b1100011000100110010101001011000 ,
b110 +
#145000
b1100 L
b1100 P
b111 /
b111 7
b111 K
b1000 J
b1000 O
b111 M
b100 .
b100 E
b100 N
1)
#150000
b111 2
b111 <
b111 G
b100 F
0)
1&
b11110011 $
b11110011 -
b11110011 5
b1111001110101110110000001111001 ,
b111 +
#155000
b1101 L
b1101 P
b1000 /
b1000 7
b1000 K
b1001 J
b1001 O
b1000 M
b1100 .
b1100 E
b1100 N
1)
#160000
0)
0&
b11000011 $
b11000011 -
b11000011 5
b11100001110101110110010111100110 ,
b1000 +
#165000
b1111 L
b1111 P
b1001 /
b1001 7
b1001 K
b1010 J
b1010 O
b1001 M
b1101 .
b1101 E
b1101 N
1)
#170000
b100 2
b100 <
b100 G
b1101 F
0)
1&
b1011111 $
b1011111 -
b1011111 5
b101111100011110100011100101111 ,
b1001 +
#175000
b1110 L
b1110 P
b1010 /
b1010 7
b1010 K
b1011 J
b1011 O
b1010 M
b1111 .
b1111 E
b1111 N
1)
#180000
0)
0&
b1000111 $
b1000111 -
b1000111 5
b10100011100010000110001110100100 ,
b1010 +
#185000
b1010 L
b1010 P
b1011 /
b1011 7
b1011 K
b1100 J
b1100 O
b1011 M
b1110 .
b1110 E
b1110 N
1)
#190000
b1101 2
b1101 <
b1101 G
b1110 F
0)
1&
b10001001 $
b10001001 -
b10001001 5
b1000100111010110001111001010101 ,
b1011 +
#195000
b1011 L
b1011 P
b1100 /
b1100 7
b1100 K
b1101 J
b1101 O
b1100 M
b1010 .
b1010 E
b1010 N
1)
#200000
0)
0&
b1111110 $
b1111110 -
b1111110 5
b111111001001101001101100010010 ,
b1100 +
#205000
b1001 L
b1001 P
b1101 /
b1101 7
b1101 K
b1110 J
b1110 O
b1101 M
b1011 .
b1011 E
b1011 N
1)
#210000
b1110 2
b1110 <
b1110 G
b1011 F
0)
1&
b1000101 $
b1000101 -
b1000101 5
b100010110111000001011101101011 ,
b1101 +
#215000
b1000 L
b1000 P
b1110 /
b1110 7
b1110 K
b1111 J
b1111 O
b1110 M
b1001 .
b1001 E
b1001 N
1)
#220000
0)
0&
b1011101 $
b1011101 -
b1011101 5
b101110110110100010111110110000 ,
b1110 +
#225000
1I
b11000 L
b11000 P
b1111 /
b1111 7
b1111 K
b10000 J
b10000 O
b1111 M
b1000 .
b1000 E
b1000 N
1)
#230000
b1011 2
b1011 <
b1011 G
b1000 F
0)
1&
b10010001 $
b10010001 -
b10010001 5
b11001000110101000001111111110001 ,
b1111 +
#235000
1I
b11000 L
b11000 P
b0 /
b0 7
b0 K
b10000 J
b10000 O
b10000 M
b11000 .
b11000 E
b11000 N
1!
1)
#240000
0)
0&
b1101110 $
b1101110 -
b1101110 5
b10110111011011011101000011111110 ,
b10000 +
#245000
1)
#250000
b1000 2
b1000 <
b1000 G
b11000 F
0)
1&
b10001111 $
b10001111 -
b10001111 5
b1000111100010110100000101100111 ,
b10001 +
#255000
1)
#260000
0)
0&
b111100 $
b111100 -
b111100 5
b10011110001111001001101001111100 ,
b10010 +
#265000
1)
#270000
b11000 2
b11000 <
b11000 G
0)
1&
b11001001 $
b11001001 -
b11001001 5
b1100100110111000000000101001101 ,
b10011 +
#275000
1)
#280000
b1 =
b1 A
b1 :
b1 @
0)
0&
1%
0(
b0 +
#285000
1)
#290000
b11 =
b11 A
b111000 #
b111000 4
b111000 6
b1 1
b1 8
b1 ;
b1 0
b1 ?
b1 B
b10 :
b10 @
b1 >
0)
1&
#295000
b1 C
1)
#300000
0)
0&
b1 +
#305000
0I
b1 3
b1 D
b1 H
1)
#310000
b10 =
b10 A
b10000110 #
b10000110 4
b10000110 6
b10 1
b10 8
b10 ;
b11 0
b11 ?
b11 B
b11 :
b11 @
b10 >
0)
1&
#315000
b11 C
0!
1)
#320000
0)
0&
b10 +
#325000
b11 3
b11 D
b11 H
1)
#330000
b110 =
b110 A
b1011100 #
b1011100 4
b1011100 6
b11 1
b11 8
b11 ;
b10 0
b10 ?
b10 B
b100 :
b100 @
b11 >
0)
1&
#335000
b10 C
1)
#340000
0)
0&
b11 +
#345000
b10 3
b10 D
b10 H
1)
#350000
b111 =
b111 A
b11001110 #
b11001110 4
b11001110 6
b100 1
b100 8
b100 ;
b110 0
b110 ?
b110 B
b101 :
b101 @
b100 >
0)
1&
#355000
b110 C
1)
#360000
0)
0&
b100 +
#365000
b110 3
b110 D
b110 H
1)
#370000
b101 =
b101 A
b11000111 #
b11000111 4
b11000111 6
b101 1
b101 8
b101 ;
b111 0
b111 ?
b111 B
b110 :
b110 @
b101 >
0)
1&
#375000
b111 C
1)
#380000
0)
0&
b101 +
#385000
b111 3
b111 D
b111 H
1)
#390000
b100 =
b100 A
b11000110 #
b11000110 4
b11000110 6
b110 1
b110 8
b110 ;
b101 0
b101 ?
b101 B
b111 :
b111 @
b110 >
0)
1&
#395000
b101 C
1)
#400000
0)
0&
b110 +
#405000
b101 3
b101 D
b101 H
1)
#410000
b1100 =
b1100 A
b11110011 #
b11110011 4
b11110011 6
b111 1
b111 8
b111 ;
b100 0
b100 ?
b100 B
b1000 :
b1000 @
b111 >
0)
1&
#415000
b100 C
1)
#420000
0)
0&
b111 +
#425000
b100 3
b100 D
b100 H
1)
#430000
b1101 =
b1101 A
b11000011 #
b11000011 4
b11000011 6
b1000 1
b1000 8
b1000 ;
b1100 0
b1100 ?
b1100 B
b1001 :
b1001 @
b1000 >
0)
1&
#435000
b1100 C
1)
#440000
0)
0&
b1000 +
#445000
b1100 3
b1100 D
b1100 H
1)
#450000
b1111 =
b1111 A
b1011111 #
b1011111 4
b1011111 6
b1001 1
b1001 8
b1001 ;
b1101 0
b1101 ?
b1101 B
b1010 :
b1010 @
b1001 >
0)
1&
#455000
b1101 C
1)
#460000
0)
0&
b1001 +
#465000
b1101 3
b1101 D
b1101 H
1)
#470000
b1110 =
b1110 A
b1000111 #
b1000111 4
b1000111 6
b1010 1
b1010 8
b1010 ;
b1111 0
b1111 ?
b1111 B
b1011 :
b1011 @
b1010 >
0)
1&
#475000
b1111 C
1)
#480000
0)
0&
b1010 +
#485000
b1111 3
b1111 D
b1111 H
1)
#490000
b1010 =
b1010 A
b10001001 #
b10001001 4
b10001001 6
b1011 1
b1011 8
b1011 ;
b1110 0
b1110 ?
b1110 B
b1100 :
b1100 @
b1011 >
0)
1&
#495000
b1110 C
1)
#500000
0)
0&
b1011 +
#505000
b1110 3
b1110 D
b1110 H
1)
#510000
b1011 =
b1011 A
b1111110 #
b1111110 4
b1111110 6
b1100 1
b1100 8
b1100 ;
b1010 0
b1010 ?
b1010 B
b1101 :
b1101 @
b1100 >
0)
1&
#515000
b1010 C
1)
#520000
0)
0&
b1100 +
#525000
b1010 3
b1010 D
b1010 H
1)
#530000
b1001 =
b1001 A
b1000101 #
b1000101 4
b1000101 6
b1101 1
b1101 8
b1101 ;
b1011 0
b1011 ?
b1011 B
b1110 :
b1110 @
b1101 >
0)
1&
#535000
b1011 C
1)
#540000
0)
0&
b1101 +
#545000
b1011 3
b1011 D
b1011 H
1)
#550000
b1000 =
b1000 A
b1011101 #
b1011101 4
b1011101 6
b1110 1
b1110 8
b1110 ;
b1001 0
b1001 ?
b1001 B
b1111 :
b1111 @
b1110 >
0)
1&
#555000
b1001 C
1)
#560000
0)
0&
b1110 +
#565000
b1001 3
b1001 D
b1001 H
1)
#570000
19
b11000 =
b11000 A
b10010001 #
b10010001 4
b10010001 6
b1111 1
b1111 8
b1111 ;
b1000 0
b1000 ?
b1000 B
b10000 :
b10000 @
b1111 >
0)
1&
#575000
b1000 C
1)
#580000
0)
0&
b1111 +
#585000
b1000 3
b1000 D
b1000 H
1)
#590000
19
b11000 =
b11000 A
b0 #
b0 4
b0 6
b0 1
b0 8
b0 ;
b11000 0
b11000 ?
b11000 B
b10000 :
b10000 @
b10000 >
1"
0)
1&
#595000
b11000 C
1)
#600000
0)
0&
b10000 +
#605000
b11000 3
b11000 D
b11000 H
1)
#610000
0)
1&
#615000
1)
#620000
0)
0&
b10001 +
#625000
1)
#630000
0)
1&
#635000
1)
#640000
0)
0&
b10010 +
#645000
1)
#650000
0)
1&
#655000
1)
#660000
0)
0&
b10011 +
#665000
1)
#670000
0)
1&
#675000
1)
#680000
0)
0&
b10100 +
